Gen_HexFiles/Simulation_GPS/iladata_15.vcd
$date
        2017-Apr-15 01:46:53
$end
$version
        Vivado v2016.2 (64-bit)
$end
$timescale
        1ps
$end
$scope module dut $end
$var reg 1 " i_system_wrapper/system_i/axi_ad9361_adc_enable_i0 $end
$var reg 1 # i_system_wrapper/system_i/axi_ad9361_adc_valid_i0 $end
$var reg 16 $ i_system_wrapper/system_i/axi_ad9361_adc_data_i0 [15:0] $end
$var reg 1 4 i_system_wrapper/system_i/axi_ad9361_adc_enable_q0 $end
$var reg 1 5 i_system_wrapper/system_i/axi_ad9361_adc_valid_q0 $end
$var reg 16 6 i_system_wrapper/system_i/axi_ad9361_adc_data_q0 [15:0] $end
$var reg 1 F i_system_wrapper/system_i/axi_ad9361_adc_enable_i1 $end
$var reg 1 G i_system_wrapper/system_i/axi_ad9361_adc_valid_i1 $end
$var reg 16 H i_system_wrapper/system_i/axi_ad9361_adc_data_i1 [15:0] $end
$var reg 1 X i_system_wrapper/system_i/axi_ad9361_adc_enable_q1 $end
$var reg 1 Y i_system_wrapper/system_i/axi_ad9361_adc_valid_q1 $end
$var reg 16 Z i_system_wrapper/system_i/axi_ad9361_adc_data_q1 [15:0] $end
$var reg 1 j _TRIGGER $end
$var reg 1 k _WINDOW $end
$var reg 1 l _GAP $end
$upscope $end
$enddefinitions $end
#0
$dumpvars
1"
1#
b1111111110001110 $
14
15
b1111110111001100 6
1F
1G
b11 H
1X
1Y
b11 Z
1j
1k
0l
$end
#1
0#
05
0G
0Y
#4
1#
b1111111111110111 $
15
b1111110001000111 6
1G
b1011 H
1Y
b101 Z
#5
0#
05
0G
0Y
#8
1#
b1111111000110111 $
15
b1111111010011011 6
1G
b1111111111101000 H
1Y
b1111111111111010 Z
#9
0#
05
0G
0Y
#12
1#
b110000 $
15
b11111110 6
1G
b0 H
1Y
b1111111111100110 Z
#13
0#
05
0G
0Y
#16
1#
b1111111110001111 $
15
b1111111100111000 6
1G
b1100 H
1Y
b1111111111111110 Z
#17
0#
05
0G
0Y
#20
1#
b11101100 $
15
b1111111001111001 6
1G
b1000 H
1Y
b1101 Z
#21
0#
05
0G
0Y
#24
1#
b10010101 $
15
b1011011 6
1G
b1111111111111010 H
1Y
b1111111111110101 Z
#25
0#
05
0G
0Y
#28
1#
b100011010 $
15
b11010100 6
1G
b10010 H
1Y
b1100 Z
#29
0#
05
0G
0Y
#32
1#
b11011010 $
15
b1111111110000101 6
1G
b1111111111111001 H
1Y
b111 Z
#33
0#
05
0G
0Y
#36
1#
b1111111000110010 $
15
b100001110 6
1G
b1111111111111110 H
1Y
b1111111111101011 Z
#37
0#
05
0G
0Y
#40
1#
b1111111010110001 $
15
b1111111110100111 6
1G
b1111111111101000 H
1Y
b1111111111100010 Z
#41
0#
05
0G
0Y
#44
1#
b110111 $
15
b1110100010 6
1G
b0 H
1Y
b1111111111100011 Z
#45
0#
05
0G
0Y
#48
1#
b1111111001101101 $
15
b10111000 6
1G
b100000 H
1Y
b100 Z
#49
0#
05
0G
0Y
#52
1#
b1111110001011110 $
15
b1111110101110000 6
1G
b10010 H
1Y
b1111111111111001 Z
#53
0#
05
0G
0Y
#56
1#
b1111111100110100 $
15
b10011000 6
1G
b10101 H
1Y
b1111111111110100 Z
#57
0#
05
0G
0Y
#60
1#
b10101110 $
15
b1111111111111000 6
1G
b1111111111110101 H
1Y
b1111111111111010 Z
#61
0#
05
0G
0Y
#64
1#
b1111111110111101 $
15
b111110 6
1G
b1110 H
1Y
b1111111111111100 Z
#65
0#
05
0G
0Y
#68
1#
b1111111111100100 $
15
b1100011 6
1G
b1100 H
1Y
b0 Z
#69
0#
05
0G
0Y
#72
1#
b1000100001 $
15
b100100000 6
1G
1Y
b1001 Z
#73
0#
05
0G
0Y
#76
1#
b1011110001 $
15
b1111110111010110 6
1G
b10011 H
1Y
b1000 Z
#77
0#
05
0G
0Y
#80
1#
b101111110 $
15
b10001110 6
1G
b11001 H
1Y
b1111111111110100 Z
#81
0#
05
0G
0Y
#84
1#
b10001001 $
15
b1001011111 6
1G
b1111111111111111 H
1Y
b0 Z
#85
0#
05
0G
0Y
#88
1#
b1111111010001001 $
15
b100101110 6
1G
b10000 H
1Y
b11110 Z
#89
0#
05
0G
0Y
#92
1#
b1111110111011111 $
15
b1111111100101110 6
1G
b1111111111101000 H
1Y
b1011 Z
#93
0#
05
0G
0Y
#96
1#
b1011101 $
15
b11111101 6
1G
b10010 H
1Y
b10010 Z
#97
0#
05
0G
0Y
#100
1#
b1111111110011001 $
15
b110001101 6
1G
b1000 H
1Y
b10011 Z
#101
0#
05
0G
0Y
#104
1#
b1111111111101000 $
15
b1111111111010101 6
1G
b10001 H
1Y
b11100 Z
#105
0#
05
0G
0Y
#108
1#
b110111001 $
15
b1010110 6
1G
b1111 H
1Y
b0 Z
#109
0#
05
0G
0Y
#112
1#
b110101111 $
15
b1111110111011101 6
1G
b10101 H
1Y
b1111111111111101 Z
#113
0#
05
0G
0Y
#116
1#
b1010111 $
15
b1111110110000110 6
1G
b110 H
1Y
b1100 Z
#117
0#
05
0G
0Y
#120
1#
b110011101 $
15
b1111111101111110 6
1G
b1100 H
1Y
b1111111111111010 Z
#121
0#
05
0G
0Y
#124
1#
b0 $
15
b100001110 6
1G
b1111111111111110 H
1Y
b1111111111110111 Z
#125
0#
05
0G
0Y
#128
1#
b1111111101001011 $
15
b1111111011110101 6
1G
b110 H
1Y
b1111111111111010 Z
#129
0#
05
0G
0Y
#132
1#
b1000001001 $
15
b1101111 6
1G
b10110 H
1Y
b1100 Z
#133
0#
05
0G
0Y
#136
1#
b1111111010001100 $
15
b1010 6
1G
b1111111111101010 H
1Y
b1111 Z
#137
0#
05
0G
0Y
#140
1#
b1111111000111110 $
15
b10011111 6
1G
b1111111111111101 H
1Y
b101 Z
#141
0#
05
0G
0Y
#144
1#
b1010010 $
15
b1011100 6
1G
b1111111111110100 H
1Y
b100000 Z
#145
0#
05
0G
0Y
#148
1#
b1111110010111110 $
15
b101011011 6
1G
b10001 H
1Y
b1 Z
#149
0#
05
0G
0Y
#152
1#
b1111111111101111 $
15
b11001101 6
1G
b11 H
1Y
b1101 Z
#153
0#
05
0G
0Y
#156
1#
b11001000 $
15
b1001100 6
1G
b1010 H
1Y
b1111111111111100 Z
#157
0#
05
0G
0Y
#160
1#
b1111111101111110 $
15
b1111111011111101 6
1G
b1111111111011111 H
1Y
b100 Z
#161
0#
05
0G
0Y
#164
1#
b101111100 $
15
b11001100 6
1G
b1111111111111010 H
1Y
b11000 Z
#165
0#
05
0G
0Y
#168
1#
b111000101 $
15
b101001001 6
1G
b1111111111110011 H
1Y
b0 Z
#169
0#
05
0G
0Y
#172
1#
b11010010 $
15
b10000110 6
1G
b111 H
1Y
b1111111111111010 Z
#173
0#
05
0G
0Y
#176
1#
b1011100110 $
15
b110101 6
1G
b1 H
1Y
b10000 Z
#177
0#
05
0G
0Y
#180
1#
b10000000 $
15
b1111111111011010 6
1G
b1111111111100100 H
1Y
b11000 Z
#181
0#
05
0G
0Y
#184
1#
b1111111100101000 $
15
b1111111110101110 6
1G
b1111111111111010 H
1Y
b1111111111101111 Z
#185
0#
05
0G
0Y
#188
1#
b1111111010101110 $
15
b1111111010111001 6
1G
b1111111111101111 H
1Y
b110 Z
#189
0#
05
0G
0Y
#192
1#
b1111111110111011 $
15
b1111111111000111 6
1G
b1111111111111111 H
1Y
b1111111111110101 Z
#193
0#
05
0G
0Y
#196
1#
b11000111 $
15
b1111110111100110 6
1G
b1111111111101010 H
1Y
b1111111111101110 Z
#197
0#
05
0G
0Y
#200
1#
b10011010 $
15
b1111111111110100 6
1G
b100 H
1Y
b1111111111111111 Z
#201
0#
05
0G
0Y
#204
1#
b1111111011010000 $
15
b1111111111001001 6
1G
b1111111111111010 H
1Y
b1111111111110011 Z
#205
0#
05
0G
0Y
#208
1#
b1111111100101001 $
15
b1010111 6
1G
b10100 H
1Y
b11110 Z
#209
0#
05
0G
0Y
#212
1#
b1111111101000110 $
15
b1111110001001001 6
1G
b1111111111111111 H
1Y
b1111111111111011 Z
#213
0#
05
0G
0Y
#216
1#
b1111111011101110 $
15
b100000001 6
1G
b1111111111011000 H
1Y
b1100 Z
#217
0#
05
0G
0Y
#220
1#
b10100110 $
15
b1110101 6
1G
b10010 H
1Y
b0 Z
#221
0#
05
0G
0Y
#224
1#
b10000001 $
15
b111101 6
1G
b1111111111111011 H
1Y
b1111111111111111 Z
#225
0#
05
0G
0Y
#228
1#
b101011110 $
15
b1001000011 6
1G
b1111111111101110 H
1Y
b1101 Z
#229
0#
05
0G
0Y
#232
1#
b1000010100 $
15
b1111111010110110 6
1G
b1111111111101001 H
1Y
b1111111111110001 Z
#233
0#
05
0G
0Y
#236
1#
b11100011 $
15
b1111111101111111 6
1G
b1111111111111101 H
1Y
b1 Z
#237
0#
05
0G
0Y
#240
1#
b1111111011100010 $
15
b110001100 6
1G
b11100 H
1Y
b11 Z
#241
0#
05
0G
0Y
#244
1#
b11001001 $
15
b100001011 6
1G
b1111111111111000 H
1Y
b10011 Z
#245
0#
05
0G
0Y
#248
1#
b111010001 $
15
b1010000 6
1G
b11001 H
1Y
b1111111111101110 Z
#249
0#
05
0G
0Y
#252
1#
b111101111 $
15
b1111111110011101 6
1G
b101 H
1Y
b1111111111101010 Z
#253
0#
05
0G
0Y
#256
1#
b100001010 $
15
b1111111010111100 6
1G
b110 H
1Y
b1001 Z
#257
0#
05
0G
0Y
#260
1#
b101010001 $
15
b1111111101100000 6
1G
b1111111111111101 H
1Y
#261
0#
05
0G
0Y
#264
1#
b100101101 $
15
b1111111001000101 6
1G
b1101 H
1Y
b1101 Z
#265
0#
05
0G
0Y
#268
1#
b1111111010001111 $
15
b1111111011000110 6
1G
b1010 H
1Y
b10101 Z
#269
0#
05
0G
0Y
#272
1#
b1111111110111000 $
15
b100110110 6
1G
b1111111111101010 H
1Y
b101 Z
#273
0#
05
0G
0Y
#276
1#
b1111111100101010 $
15
b111110101 6
1G
b1111111111111101 H
1Y
b100001 Z
#277
0#
05
0G
0Y
#280
1#
b1111111101011010 $
15
b1111111010011001 6
1G
b1111111111111100 H
1Y
b1011 Z
#281
0#
05
0G
0Y
#284
1#
b1111111001100011 $
15
b1111111101000111 6
1G
b10111 H
1Y
b1111111111110100 Z
#285
0#
05
0G
0Y
#288
1#
b1111111000100101 $
15
b11010010 6
1G
b1111111111101110 H
1Y
b10 Z
#289
0#
05
0G
0Y
#292
1#
b100010110 $
15
b111 6
1G
b100010 H
1Y
b1101 Z
#293
0#
05
0G
0Y
#296
1#
b1111110101001011 $
15
b1111111010100101 6
1G
b1111111111111111 H
1Y
b11000 Z
#297
0#
05
0G
0Y
#300
1#
b101101011 $
15
b100110 6
1G
b11100 H
1Y
b10010 Z
#301
0#
05
0G
0Y
#304
1#
b1111111011111001 $
15
b101101100 6
1G
b1011 H
1Y
b1111111111100001 Z
#305
0#
05
0G
0Y
#308
1#
b10000000 $
15
b110100 6
1G
b1111111111111110 H
1Y
b1111111111110101 Z
#309
0#
05
0G
0Y
#312
1#
b100010110 $
15
b1111111110100110 6
1G
b10010 H
1Y
b1111111111110110 Z
#313
0#
05
0G
0Y
#316
1#
b11011100 $
15
b100101000 6
1G
1Y
b1111111111101101 Z
#317
0#
05
0G
0Y
#320
1#
b1111111001001011 $
15
b1111111001110100 6
1G
b1111111111111001 H
1Y
b1 Z
#321
0#
05
0G
0Y
#324
1#
b1111111010001111 $
15
b1101000101 6
1G
b1110 H
1Y
b1111111111111011 Z
#325
0#
05
0G
0Y
#328
1#
b1111111110011001 $
15
b110011100 6
1G
b1111111111111111 H
1Y
b1111111111111010 Z
#329
0#
05
0G
0Y
#332
1#
b100100001 $
15
b100010100 6
1G
b100011 H
1Y
b1111111111111110 Z
#333
0#
05
0G
0Y
#336
1#
b101 $
15
b1111111111110111 6
1G
b1011 H
1Y
b110 Z
#337
0#
05
0G
0Y
#340
1#
b1111111100001110 $
15
b101100111 6
1G
b1010 H
1Y
b10010 Z
#341
0#
05
0G
0Y
#344
1#
b10100100 $
15
b1111111001101000 6
1G
b1111111111110000 H
1Y
b100 Z
#345
0#
05
0G
0Y
#348
1#
b11111000 $
15
b100110010 6
1G
b10110 H
1Y
b1111111111100011 Z
#349
0#
05
0G
0Y
#352
1#
b10101100 $
15
b1111111111011000 6
1G
b1111111111110110 H
1Y
b1001 Z
#353
0#
05
0G
0Y
#356
1#
b10101110 $
15
b1111110 6
1G
b0 H
1Y
b11110 Z
#357
0#
05
0G
0Y
#360
1#
b1111111100111010 $
15
b1111111110101110 6
1G
b1111111111100010 H
1Y
b1010 Z
#361
0#
05
0G
0Y
#364
1#
b1000001 $
15
b1111110101111101 6
1G
b1011 H
1Y
b11000 Z
#365
0#
05
0G
0Y
#368
1#
b1111111011010001 $
15
b1111111110100100 6
1G
b0 H
1Y
b10 Z
#369
0#
05
0G
0Y
#372
1#
b1111111101011100 $
15
b11011010 6
1G
b1111111111111001 H
1Y
b1111111111111111 Z
#373
0#
05
0G
0Y
#376
1#
b1111111010110111 $
15
b1111111110001101 6
1G
b1111111111110110 H
1Y
b11001 Z
#377
0#
05
0G
0Y
#380
1#
b1111111011001001 $
15
b1111111100011010 6
1G
b1111111111111010 H
1Y
b1010 Z
#381
0#
05
0G
0Y
#384
1#
b1111111110011000 $
15
b100111000 6
1G
b1111111111011101 H
1Y
b11101 Z
#385
0#
05
0G
0Y
#388
1#
b10001100 $
15
b1111111111001111 6
1G
b1111111111101001 H
1Y
b1100 Z
#389
0#
05
0G
0Y
#392
1#
b11000000 $
15
b1111111110000001 6
1G
b1111111111110111 H
1Y
b1111111111100001 Z
#393
0#
05
0G
0Y
#396
1#
b110010111 $
15
b1111111010101001 6
1G
b1111111111111000 H
1Y
#397
0#
05
0G
0Y
#400
1#
b11011 $
15
b1111111010011100 6
1G
b1111111111101111 H
1Y
b1111111111111000 Z
#401
0#
05
0G
0Y
#404
1#
b1111111010111101 $
15
b1001010111 6
1G
b1111111111100101 H
1Y
b101011 Z
#405
0#
05
0G
0Y
#408
1#
b1111111001011101 $
15
b1110011001 6
1G
b1001 H
1Y
b1101 Z
#409
0#
05
0G
0Y
#412
1#
b11111010 $
15
b1111111101111100 6
1G
b10000 H
1Y
b1111111111110001 Z
#413
0#
05
0G
0Y
#416
1#
b100000 $
15
b1100100 6
1G
b1111111111111011 H
1Y
b1111111111111110 Z
#417
0#
05
0G
0Y
#420
1#
b1111110101011101 $
15
b101010010 6
1G
b110 H
1Y
b10011 Z
#421
0#
05
0G
0Y
#424
1#
b1111110110001011 $
15
b110101 6
1G
b100 H
1Y
b100011 Z
#425
0#
05
0G
0Y
#428
1#
b1111111010000010 $
15
b1000110001 6
1G
b1111111111110010 H
1Y
b0 Z
#429
0#
05
0G
0Y
#432
1#
b1111111101101101 $
15
b11000 6
1G
b1111111111110110 H
1Y
b1111111111101001 Z
#433
0#
05
0G
0Y
#436
1#
b1111111110001100 $
15
b1111110001111010 6
1G
b10 H
1Y
b111 Z
#437
0#
05
0G
0Y
#440
1#
b1001101 $
15
b1111111110100000 6
1G
b1111111111111011 H
1Y
b1000 Z
#441
0#
05
0G
0Y
#444
1#
b1011000111 $
15
b1110011 6
1G
b100101 H
1Y
b1111111111111010 Z
#445
0#
05
0G
0Y
#448
1#
b10011110011 $
15
b1111111011100000 6
1G
b1111111111101100 H
1Y
#449
0#
05
0G
0Y
#452
1#
b110110 $
15
b1111111011111001 6
1G
b1 H
1Y
b1111111111100010 Z
#453
0#
05
0G
0Y
#456
1#
b1111111001110011 $
15
b1000010001 6
1G
b10011 H
1Y
b11010 Z
#457
0#
05
0G
0Y
#460
1#
b1101011100 $
15
b10000010 6
1G
b1111111111110011 H
1Y
b1111111111111000 Z
#461
0#
05
0G
0Y
#464
1#
b101100110 $
15
b1111111010011001 6
1G
b1111111111110101 H
1Y
b1111111111101110 Z
#465
0#
05
0G
0Y
#468
1#
b1111111000100100 $
15
b100010100 6
1G
b11110 H
1Y
b11 Z
#469
0#
05
0G
0Y
#472
1#
b1111110011111011 $
15
b10101001 6
1G
b10000 H
1Y
b1111111111011101 Z
#473
0#
05
0G
0Y
#476
1#
b110011 $
15
b11101001 6
1G
b1111111111111001 H
1Y
b1111111111111111 Z
#477
0#
05
0G
0Y
#480
1#
b1111111100100110 $
15
b11011010 6
1G
b0 H
1Y
b10100 Z
#481
0#
05
0G
0Y
#484
1#
b100 $
15
b1111111100111101 6
1G
b10010 H
1Y
b0 Z
#485
0#
05
0G
0Y
#488
1#
b111011 $
15
b1111110100011111 6
1G
b1111111111100111 H
1Y
b1111111111101110 Z
#489
0#
05
0G
0Y
#492
1#
b1111111110101010 $
15
b100010111 6
1G
b1111111111111000 H
1Y
b1001 Z
#493
0#
05
0G
0Y
#496
1#
b110011 $
15
b110010011 6
1G
b1111111111111101 H
1Y
b0 Z
#497
0#
05
0G
0Y
#500
1#
b1111111110001111 $
15
b1111111110011111 6
1G
b1111111111111011 H
1Y
b1111111111101000 Z
#501
0#
05
0G
0Y
#504
1#
b1111111101100110 $
15
b100111111 6
1G
b1111111111101110 H
1Y
b1111111111110010 Z
#505
0#
05
0G
0Y
#508
1#
b1111111010001100 $
15
b1011110001 6
1G
b1111111111101100 H
1Y
b0 Z
#509
0#
05
0G
0Y
#512
1#
b1000000000 $
15
b1101010111 6
1G
b10 H
1Y
b10000 Z
#513
0#
05
0G
0Y
#516
1#
b1111111101100001 $
15
b1111111010001001 6
1G
b1100 H
1Y
b11111 Z
#517
0#
05
0G
0Y
#520
1#
b1111111101001000 $
15
b1111111110101000 6
1G
b101 H
1Y
b1101 Z
#521
0#
05
0G
0Y
#524
1#
b1111111100101010 $
15
b11001101 6
1G
b1111111111100101 H
1Y
b10110 Z
#525
0#
05
0G
0Y
#528
1#
b1111111001010110 $
15
b1111111111011110 6
1G
b1111111111101011 H
1Y
b1111111111111011 Z
#529
0#
05
0G
0Y
#532
1#
b100110000 $
15
b1111111110000111 6
1G
b1111111111110000 H
1Y
b1111111111111100 Z
#533
0#
05
0G
0Y
#536
1#
b101111 $
15
b1111111010101111 6
1G
b11011 H
1Y
b1111111111111101 Z
#537
0#
05
0G
0Y
#540
1#
b1111111001110101 $
15
b1111111000100001 6
1G
b11 H
1Y
b1111111111111111 Z
#541
0#
05
0G
0Y
#544
1#
b10110110 $
15
b10101011 6
1G
1Y
b1111111111111001 Z
#545
0#
05
0G
0Y
#548
1#
b1111111111001110 $
15
b1111111101110101 6
1G
b1111111111101001 H
1Y
b1101 Z
#549
0#
05
0G
0Y
#552
1#
b11011000 $
15
b1111111011110000 6
1G
b1111111111101111 H
1Y
b111 Z
#553
0#
05
0G
0Y
#556
1#
b100111111 $
15
b1111111010011000 6
1G
b100110 H
1Y
b10000 Z
#557
0#
05
0G
0Y
#560
1#
b1111111111001100 $
15
b101011001 6
1G
b100 H
1Y
b11111 Z
#561
0#
05
0G
0Y
#564
1#
b1111111010101011 $
15
b1111111011011000 6
1G
b1 H
1Y
b1111111111001111 Z
#565
0#
05
0G
0Y
#568
1#
b1111111011100111 $
15
b10000000 6
1G
b11110 H
1Y
b110 Z
#569
0#
05
0G
0Y
#572
1#
b10010 $
15
b111000000 6
1G
b1111111111101110 H
1Y
b1111111111100111 Z
#573
0#
05
0G
0Y
#576
1#
b101110 $
15
b110001001 6
1G
b1111111111101010 H
1Y
b1111111111101100 Z
#577
0#
05
0G
0Y
#580
1#
b11101 $
15
b1111111111110101 6
1G
b1111111111100001 H
1Y
b11011 Z
#581
0#
05
0G
0Y
#584
1#
b11110010 $
15
b1111111110000000 6
1G
b1111111111111001 H
1Y
b1111111111101010 Z
#585
0#
05
0G
0Y
#588
1#
b11000001 $
15
b1111111011101111 6
1G
b1111111111111011 H
1Y
b1111111111100101 Z
#589
0#
05
0G
0Y
#592
1#
b1010001100 $
15
b111100100 6
1G
b1111111111111010 H
1Y
b1111111111101010 Z
#593
0#
05
0G
0Y
#596
1#
b1111111011110001 $
15
b11100101 6
1G
b1000 H
1Y
b1111111111011010 Z
#597
0#
05
0G
0Y
#600
1#
b1111110111010101 $
15
b1111110101101100 6
1G
b100 H
1Y
b1111111111111110 Z
#601
0#
05
0G
0Y
#604
1#
b1111110111110011 $
15
b1111111000000010 6
1G
b111 H
1Y
b1111111111011001 Z
#605
0#
05
0G
0Y
#608
1#
b1111111000110011 $
15
b1010111111 6
1G
b1111111111110001 H
1Y
b1111111111111010 Z
#609
0#
05
0G
0Y
#612
1#
b110000 $
15
b11110111 6
1G
b1111111111100111 H
1Y
b1111111111110001 Z
#613
0#
05
0G
0Y
#616
1#
b1001000 $
15
b1111111000100110 6
1G
b1111111111111011 H
1Y
b1111111111110101 Z
#617
0#
05
0G
0Y
#620
1#
b1000100 $
15
b1111111001100100 6
1G
b0 H
1Y
b1111111111110000 Z
#621
0#
05
0G
0Y
#624
1#
b11101101 $
15
b1111111101010001 6
1G
b1111111111111111 H
1Y
b1111111111011110 Z
#625
0#
05
0G
0Y
#628
1#
b1001011111 $
15
b1111111100101111 6
1G
b1111111111111010 H
1Y
b111 Z
#629
0#
05
0G
0Y
#632
1#
b10111010 $
15
b1111111111010101 6
1G
b1111111111110110 H
1Y
b1111111111111110 Z
#633
0#
05
0G
0Y
#636
1#
b1011111011 $
15
b1111111111100111 6
1G
b1 H
1Y
b1111111111101100 Z
#637
0#
05
0G
0Y
#640
1#
b100110000 $
15
b1001111 6
1G
b10110 H
1Y
b1111111111110111 Z
#641
0#
05
0G
0Y
#644
1#
b1100111 $
15
b100011110 6
1G
b1111111111110011 H
1Y
b1111111111100111 Z
#645
0#
05
0G
0Y
#648
1#
b10101101 $
15
b1111111011100101 6
1G
b1101 H
1Y
b1111111111110101 Z
#649
0#
05
0G
0Y
#652
1#
b1111111111101000 $
15
b100001001 6
1G
b1111111111110000 H
1Y
b11000 Z
#653
0#
05
0G
0Y
#656
1#
b1111111111001101 $
15
b10011 6
1G
b1111111111110100 H
1Y
b1111111111110001 Z
#657
0#
05
0G
0Y
#660
1#
b11100111 $
15
b1111110101110011 6
1G
b1111111111111101 H
1Y
b1111111111111111 Z
#661
0#
05
0G
0Y
#664
1#
b1111110110100001 $
15
b1000101101 6
1G
b1111111111111110 H
1Y
b1110 Z
#665
0#
05
0G
0Y
#668
1#
b10000100 $
15
b1111111011010111 6
1G
b1111111111100100 H
1Y
b1111111111110000 Z
#669
0#
05
0G
0Y
#672
1#
b1111111111110001 $
15
b1111110101010010 6
1G
b1111111111111011 H
1Y
b10111 Z
#673
0#
05
0G
0Y
#676
1#
b11000111 $
15
b101000010 6
1G
b1111111111111000 H
1Y
b11011 Z
#677
0#
05
0G
0Y
#680
1#
b1111111100010000 $
15
b1111111010111010 6
1G
b1111111111100101 H
1Y
b1 Z
#681
0#
05
0G
0Y
#684
1#
b1111111011001100 $
15
b1111110111100001 6
1G
b10010 H
1Y
b1111111111110110 Z
#685
0#
05
0G
0Y
#688
1#
b110000 $
15
b1111111100111110 6
1G
b1111111111111011 H
1Y
b1111111111111000 Z
#689
0#
05
0G
0Y
#692
1#
b110101011 $
15
b1111111010011101 6
1G
b1111111111111000 H
1Y
b10010 Z
#693
0#
05
0G
0Y
#696
1#
b1111111011101111 $
15
b1111111011110001 6
1G
b1110 H
1Y
b1110 Z
#697
0#
05
0G
0Y
#700
1#
b1111111111110110 $
15
b111101101 6
1G
b1111111111110101 H
1Y
b1111111111110111 Z
#701
0#
05
0G
0Y
#704
1#
b100011111 $
15
b1111111111001000 6
1G
b1111111111101000 H
1Y
b1111111111100001 Z
#705
0#
05
0G
0Y
#708
1#
b100001111 $
15
b1111111011110010 6
1G
b1111111111101111 H
1Y
b1011 Z
#709
0#
05
0G
0Y
#712
1#
b1101110110 $
15
b1111111101101110 6
1G
b1111111111110100 H
1Y
b100 Z
#713
0#
05
0G
0Y
#716
1#
b101000000 $
15
b1101 6
1G
b111 H
1Y
b110 Z
#717
0#
05
0G
0Y
#720
1#
b110110110 $
15
b100100 6
1G
b1010 H
1Y
b1111111111111111 Z
#721
0#
05
0G
0Y
#724
1#
b10100100 $
15
b101111100 6
1G
b1111111111110101 H
1Y
b1111111111110001 Z
#725
0#
05
0G
0Y
#728
1#
b1000100 $
15
b101010000 6
1G
b1111111111111011 H
1Y
b1111111111100001 Z
#729
0#
05
0G
0Y
#732
1#
b100011111 $
15
b100101 6
1G
b1111111111110010 H
1Y
b10100 Z
#733
0#
05
0G
0Y
#736
1#
b1111111101011010 $
15
b1111111011100001 6
1G
b110 H
1Y
b1010 Z
#737
0#
05
0G
0Y
#740
1#
b1111111011110100 $
15
b1001101000 6
1G
b1011 H
1Y
b1111111111101101 Z
#741
0#
05
0G
0Y
#744
1#
b1111111101111010 $
15
b1111110110111011 6
1G
b1111111111110100 H
1Y
b1100 Z
#745
0#
05
0G
0Y
#748
1#
b10101110 $
15
b111110001 6
1G
b1001 H
1Y
b1111111111111100 Z
#749
0#
05
0G
0Y
#752
1#
b11100 $
15
b10011000111 6
1G
b1111111111111011 H
1Y
b1111111111110101 Z
#753
0#
05
0G
0Y
#756
1#
b110010011 $
15
b1110011 6
1G
b1111111111110101 H
1Y
b10 Z
#757
0#
05
0G
0Y
#760
1#
b101001100 $
15
b1111111101100010 6
1G
b1111111111111011 H
1Y
b1111111111111101 Z
#761
0#
05
0G
0Y
#764
1#
b110011001 $
15
b1001011011 6
1G
b1111111111011111 H
1Y
b11 Z
#765
0#
05
0G
0Y
#768
1#
b100001 $
15
b1111110100111101 6
1G
b1111111111111001 H
1Y
b1111111111111000 Z
#769
0#
05
0G
0Y
#772
1#
b1111101111111100 $
15
b1111111000100011 6
1G
b1111111111110110 H
1Y
b1111111111101100 Z
#773
0#
05
0G
0Y
#776
1#
b1010000 $
15
b11000010 6
1G
1Y
b1111111111110011 Z
#777
0#
05
0G
0Y
#780
1#
b1111110110100110 $
15
b1111111100111001 6
1G
b1111111111111110 H
1Y
b1111111111111011 Z
#781
0#
05
0G
0Y
#784
1#
b1111111011111000 $
15
b1111111101100101 6
1G
b10000 H
1Y
b1111111111110100 Z
#785
0#
05
0G
0Y
#788
1#
b1011110100 $
15
b1111111001111000 6
1G
b10 H
1Y
b1101 Z
#789
0#
05
0G
0Y
#792
1#
b1010110101 $
15
b1111111 6
1G
b1000 H
1Y
b11 Z
#793
0#
05
0G
0Y
#796
1#
b100111010 $
15
b10011 6
1G
b11011 H
1Y
b1111111111111001 Z
#797
0#
05
0G
0Y
#800
1#
b110001010 $
15
b1100000 6
1G
b1111111111111000 H
1Y
b1001 Z
#801
0#
05
0G
0Y
#804
1#
b1111111110101010 $
15
b101100001 6
1G
b1111111111110010 H
1Y
b10011 Z
#805
0#
05
0G
0Y
#808
1#
b1111111001111110 $
15
b1111111111010101 6
1G
b1101 H
1Y
b1111111111101101 Z
#809
0#
05
0G
0Y
#812
1#
b1000001101 $
15
b1111111011010100 6
1G
b1010 H
1Y
b1111111111111010 Z
#813
0#
05
0G
0Y
#816
1#
b110010110 $
15
b1110101 6
1G
b1 H
1Y
b1111111111010010 Z
#817
0#
05
0G
0Y
#820
1#
b101110101 $
15
b1001001101 6
1G
b1111111111100011 H
1Y
b1111111111111011 Z
#821
0#
05
0G
0Y
#824
1#
b1111111001101111 $
15
b11101001 6
1G
b100 H
1Y
b1111111111110110 Z
#825
0#
05
0G
0Y
#828
1#
b1111111111001101 $
15
b1111111010110111 6
1G
b101010 H
1Y
b11100 Z
#829
0#
05
0G
0Y
#832
1#
b1010000 $
15
b1111111011000011 6
1G
b0 H
1Y
b110 Z
#833
0#
05
0G
0Y
#836
1#
b1111110111011111 $
15
b1111111101011100 6
1G
b11010 H
1Y
b1111111111110011 Z
#837
0#
05
0G
0Y
#840
1#
b1111111110110000 $
15
b1111111011101000 6
1G
b1111111111101101 H
1Y
b11011 Z
#841
0#
05
0G
0Y
#844
1#
b1111111100000100 $
15
b101101101 6
1G
b10010 H
1Y
b10 Z
#845
0#
05
0G
0Y
#848
1#
b1111111100010101 $
15
b1111111111011000 6
1G
b1111111111110100 H
1Y
b1000 Z
#849
0#
05
0G
0Y
#852
1#
b110000001 $
15
b1111111001110001 6
1G
b1111111111111100 H
1Y
b1111111111110110 Z
#853
0#
05
0G
0Y
#856
1#
b10110110 $
15
b1111110010110100 6
1G
b1111111111111110 H
1Y
b1001 Z
#857
0#
05
0G
0Y
#860
1#
b1111111011110011 $
15
b1111111110100010 6
1G
b1111111111100011 H
1Y
b1100 Z
#861
0#
05
0G
0Y
#864
1#
b1111111010000000 $
15
b1111110010111111 6
1G
b1111111111100101 H
1Y
b10 Z
#865
0#
05
0G
0Y
#868
1#
b1111111011101001 $
15
b11000110 6
1G
b1111111111110010 H
1Y
b10100 Z
#869
0#
05
0G
0Y
#872
1#
b1111111101111001 $
15
b1111010 6
1G
b1111111111111001 H
1Y
b100000 Z
#873
0#
05
0G
0Y
#876
1#
b1111110111001100 $
15
b10011001 6
1G
b1111111111011101 H
1Y
b11010 Z
#877
0#
05
0G
0Y
#880
1#
b1111111011111111 $
15
b1111111111101110 6
1G
b1111111111110000 H
1Y
b110 Z
#881
0#
05
0G
0Y
#884
1#
b1111111100111111 $
15
b1111111101011110 6
1G
b1111111111010010 H
1Y
b1111111111101110 Z
#885
0#
05
0G
0Y
#888
1#
b1111110100001001 $
15
b1111110101101001 6
1G
b1111111111111011 H
1Y
b11110 Z
#889
0#
05
0G
0Y
#892
1#
b1111111111100011 $
15
b1111111100110000 6
1G
b1111111111110111 H
1Y
b1111111111101001 Z
#893
0#
05
0G
0Y
#896
1#
b100010111 $
15
b1111111000010000 6
1G
b1101 H
1Y
b1111111111101100 Z
#897
0#
05
0G
0Y
