Gen_HexFiles/Simulation_GPS/iladata_26.vcd
$date
        2017-Apr-26 11:20:50
$end
$version
        Vivado v2016.2 (64-bit)
$end
$timescale
        1ps
$end
$scope module dut $end
$var reg 16 " i_system_wrapper/system_i/axi_ad9361_adc_data_i0 [15:0] $end
$var reg 1 2 i_system_wrapper/system_i/axi_ad9361_adc_enable_q0 $end
$var reg 1 3 i_system_wrapper/system_i/axi_ad9361_adc_valid_q0 $end
$var reg 16 4 i_system_wrapper/system_i/axi_ad9361_adc_data_q0 [15:0] $end
$var reg 1 D i_system_wrapper/system_i/axi_ad9361_adc_enable_i1 $end
$var reg 1 E i_system_wrapper/system_i/axi_ad9361_adc_valid_i1 $end
$var reg 16 F i_system_wrapper/system_i/axi_ad9361_adc_data_i1 [15:0] $end
$var reg 1 V i_system_wrapper/system_i/axi_ad9361_adc_enable_q1 $end
$var reg 1 W i_system_wrapper/system_i/axi_ad9361_adc_valid_q1 $end
$var reg 16 X i_system_wrapper/system_i/axi_ad9361_adc_data_q1 [15:0] $end
$var reg 1 h i_system_wrapper/system_i/axi_ad9361_adc_enable_i0 $end
$var reg 1 i i_system_wrapper/system_i/axi_ad9361_adc_valid_i0 $end
$var reg 1 j _TRIGGER $end
$var reg 1 k _WINDOW $end
$var reg 1 l _GAP $end
$upscope $end
$enddefinitions $end
#0
$dumpvars
b1111111110010001 "
12
13
b1011111 4
1D
1E
b110 F
1V
1W
b101 X
1h
1i
1j
1k
0l
$end
#1
03
0E
0W
0i
#4
b1111111110000100 "
13
b10001000 4
1E
b111 F
1W
b1111111111111101 X
1i
#5
03
0E
0W
0i
#8
b1111111101011100 "
13
b1010001 4
1E
b1111111111101000 F
1W
b1010 X
1i
#9
03
0E
0W
0i
#12
b1111110110111010 "
13
b111111001 4
1E
b1111111111110100 F
1W
b1111111111111000 X
1i
#13
03
0E
0W
0i
#16
b1010001111 "
13
b10000100011 4
1E
b1111111111101100 F
1W
b1111111111110000 X
1i
#17
03
0E
0W
0i
#20
b1000010 "
13
b100110010 4
1E
b1111111111111001 F
1W
b1111 X
1i
#21
03
0E
0W
0i
#24
b11110 "
13
b1111110101100011 4
1E
b1001 F
1W
b1100 X
1i
#25
03
0E
0W
0i
#28
b1111111011101100 "
13
b1111111011111000 4
1E
b10100 F
1W
b1111111111110101 X
1i
#29
03
0E
0W
0i
#32
b101100101 "
13
b101111011 4
1E
b1011 F
1W
b1111111111110001 X
1i
#33
03
0E
0W
0i
#36
b11000010 "
13
b1111111100111001 4
1E
b1100 F
1W
b1111111111010101 X
1i
#37
03
0E
0W
0i
#40
b10100111 "
13
b1111111001001000 4
1E
b1111111111110011 F
1W
b1011 X
1i
#41
03
0E
0W
0i
#44
b1111111100001110 "
13
b1111111100111010 4
1E
b11 F
1W
b1111111111101111 X
1i
#45
03
0E
0W
0i
#48
b1111111010011010 "
13
b1111111111010010 4
1E
b10011 F
1W
b1111111111110100 X
1i
#49
03
0E
0W
0i
#52
b1111111111000111 "
13
b1111111110011000 4
1E
b1100 F
1W
b0 X
1i
#53
03
0E
0W
0i
#56
b1111111010110000 "
13
b1111111111111110 4
1E
b1111111111111100 F
1W
b1111 X
1i
#57
03
0E
0W
0i
#60
b1111111101010011 "
13
b1111110110000101 4
1E
b10110 F
1W
b1111111111110010 X
1i
#61
03
0E
0W
0i
#64
b1101 "
13
b1011011100 4
1E
b1110 F
1W
b1111111111111010 X
1i
#65
03
0E
0W
0i
#68
b1111111100101011 "
13
b1111111110100111 4
1E
b100011 F
1W
b10100 X
1i
#69
03
0E
0W
0i
#72
b1111110100101001 "
13
b110000101 4
1E
b1111111111110010 F
1W
b10001 X
1i
#73
03
0E
0W
0i
#76
b1111101111110101 "
13
b1110011001 4
1E
b1111111111110101 F
1W
b10110 X
1i
#77
03
0E
0W
0i
#80
b1111111001101010 "
13
b1101111110 4
1E
b110011 F
1W
b1111 X
1i
#81
03
0E
0W
0i
#84
b1111111111010010 "
13
b10000110 4
1E
b1111111111111011 F
1W
b1111111111111001 X
1i
#85
03
0E
0W
0i
#88
b1010 "
13
b1111111110110110 4
1E
b1111111111111001 F
1W
b100100 X
1i
#89
03
0E
0W
0i
#92
b1111111001101100 "
13
b1001110000 4
1E
b1111111111110010 F
1W
b11011 X
1i
#93
03
0E
0W
0i
#96
b1111110110101101 "
13
b1001000111 4
1E
b10111 F
1W
b1111111111110010 X
1i
#97
03
0E
0W
0i
#100
b11001111 "
13
b100100001 4
1E
b1111111111111100 F
1W
b1111111111111000 X
1i
#101
03
0E
0W
0i
#104
b1110011000 "
13
b11111000 4
1E
b100011 F
1W
b10100 X
1i
#105
03
0E
0W
0i
#108
b1111111111101110 "
13
b1111111111001011 4
1E
b1111111111101011 F
1W
b101000 X
1i
#109
03
0E
0W
0i
#112
b1111111110011001 "
13
b1111111111010110 4
1E
b1 F
1W
b1111111111111001 X
1i
#113
03
0E
0W
0i
#116
b100001010 "
13
b1011110110 4
1E
b11101 F
1W
b1111111111110001 X
1i
#117
03
0E
0W
0i
#120
b1111111011110101 "
13
b1111111011101111 4
1E
b1111111111101000 F
1W
b10000 X
1i
#121
03
0E
0W
0i
#124
b1111110111001011 "
13
b1111111111101110 4
1E
b110 F
1W
b11111 X
1i
#125
03
0E
0W
0i
#128
b1111111001101101 "
13
b100110010 4
1E
b11011 F
1W
b1111111111111101 X
1i
#129
03
0E
0W
0i
#132
b1111110011 "
13
b1111111111011000 4
1E
b1010 F
1W
b1111111111111011 X
1i
#133
03
0E
0W
0i
#136
b1000100110 "
13
b10010101 4
1E
b10101 F
1W
b1111111111110100 X
1i
#137
03
0E
0W
0i
#140
b1111111011011000 "
13
b1010011 4
1E
b1111111111011001 F
1W
1i
#141
03
0E
0W
0i
#144
b10000011 "
13
b1111111000010110 4
1E
b1 F
1W
b1001 X
1i
#145
03
0E
0W
0i
#148
b1111111001111101 "
13
b10010101 4
1E
b110001 F
1W
b111 X
1i
#149
03
0E
0W
0i
#152
b1111111110001111 "
13
b101011100 4
1E
b11001 F
1W
b11100 X
1i
#153
03
0E
0W
0i
#156
b111001000 "
13
b1111111000010100 4
1E
b1111111111110011 F
1W
b100000 X
1i
#157
03
0E
0W
0i
#160
b1111111111100011 "
13
b1111111001100110 4
1E
b1111111111111011 F
1W
b0 X
1i
#161
03
0E
0W
0i
#164
b1111110100110100 "
13
b1111111011001110 4
1E
b1101 F
1W
b1111111111110101 X
1i
#165
03
0E
0W
0i
#168
b1111110111011001 "
13
b1001001000 4
1E
b100001 F
1W
b1111111111111110 X
1i
#169
03
0E
0W
0i
#172
b1000010110 "
13
b100011001 4
1E
b1111111111111011 F
1W
b1011 X
1i
#173
03
0E
0W
0i
#176
b101000111 "
13
b1010001 4
1E
b1111111111111010 F
1W
b1111111111111111 X
1i
#177
03
0E
0W
0i
#180
b1100011010 "
13
b1111111101011011 4
1E
b10000 F
1W
b100 X
1i
#181
03
0E
0W
0i
#184
b1100100001 "
13
b1111011 4
1E
b10011 F
1W
b11110 X
1i
#185
03
0E
0W
0i
#188
b1111111011000011 "
13
b11000100 4
1E
b1000 F
1W
b110 X
1i
#189
03
0E
0W
0i
#192
b1111110111100011 "
13
b111010111 4
1E
b10000 F
1W
b1111111111101111 X
1i
#193
03
0E
0W
0i
#196
b1111111110001100 "
13
b1111111110110010 4
1E
b1111111111111110 F
1W
b11111 X
1i
#197
03
0E
0W
0i
#200
b1111111100110111 "
13
b1111111110010101 4
1E
b10011 F
1W
b10111 X
1i
#201
03
0E
0W
0i
#204
b10000011111 "
13
b100011110 4
1E
b111 F
1W
b110010 X
1i
#205
03
0E
0W
0i
#208
b1111111110010100 "
13
b1111111011000111 4
1E
b11100 F
1W
b10101 X
1i
#209
03
0E
0W
0i
#212
b1010100 "
13
b1111111110000010 4
1E
b1111111111110010 F
1W
b10111 X
1i
#213
03
0E
0W
0i
#216
b1111101110101000 "
13
b111010101 4
1E
b10111 F
1W
b1101 X
1i
#217
03
0E
0W
0i
#220
b1111111101011011 "
13
b11110001 4
1E
b1101 F
1W
b1001 X
1i
#221
03
0E
0W
0i
#224
b10011100 "
13
b111110001 4
1E
b11100 F
1W
b1110 X
1i
#225
03
0E
0W
0i
#228
b1001000101 "
13
b1100111010 4
1E
b1 F
1W
b1111111111111111 X
1i
#229
03
0E
0W
0i
#232
b111101 "
13
b111000000 4
1E
b1001 F
1W
b1111111111110011 X
1i
#233
03
0E
0W
0i
#236
b1111111001101000 "
13
b10100100110 4
1E
b10100 F
1W
b100110 X
1i
#237
03
0E
0W
0i
#240
b1110001 "
13
b101011100 4
1E
b1111 F
1W
b1 X
1i
#241
03
0E
0W
0i
#244
b10101110000 "
13
b101110011 4
1E
b1111111111110010 F
1W
b11000 X
1i
#245
03
0E
0W
0i
#248
b1011000101 "
13
b1111110110111011 4
1E
b10010 F
1W
b1101 X
1i
#249
03
0E
0W
0i
#252
b100010100 "
13
b11011011 4
1E
b1100 F
1W
b11010 X
1i
#253
03
0E
0W
0i
#256
b11101001 "
13
b1000011100 4
1E
b1101 F
1W
b100 X
1i
#257
03
0E
0W
0i
#260
b100001010 "
13
b111011001 4
1E
b1000 F
1W
b1011 X
1i
#261
03
0E
0W
0i
#264
b10111011 "
13
b111010100 4
1E
b1001 F
1W
b1100 X
1i
#265
03
0E
0W
0i
#268
b100110001 "
13
b1111110111110011 4
1E
b1111111111100110 F
1W
b10100 X
1i
#269
03
0E
0W
0i
#272
b10000010 "
13
b1011111011 4
1E
b1111111111101111 F
1W
b10001 X
1i
#273
03
0E
0W
0i
#276
b1101001001 "
13
b1111111101010101 4
1E
b1111111111110000 F
1W
b101100 X
1i
#277
03
0E
0W
0i
#280
b1000100010 "
13
b1111110001101101 4
1E
b10110 F
1W
b1111111111111101 X
1i
#281
03
0E
0W
0i
#284
b1000011101 "
13
b1000101100 4
1E
b1111111111110101 F
1W
b1111111111111100 X
1i
#285
03
0E
0W
0i
#288
b100000110 "
13
b100100001 4
1E
b1111111111111110 F
1W
b110 X
1i
#289
03
0E
0W
0i
#292
b1111110101110011 "
13
b1111111000111010 4
1E
b1111111111110110 F
1W
b0 X
1i
#293
03
0E
0W
0i
#296
b1111110101011011 "
13
b1111111100011010 4
1E
b1111111111110111 F
1W
b10100 X
1i
#297
03
0E
0W
0i
#300
b1111111001010111 "
13
b1000110111 4
1E
b1111111111111000 F
1W
b1111111111011011 X
1i
#301
03
0E
0W
0i
#304
b101000011 "
13
b1111111110100110 4
1E
b1111111111101010 F
1W
b1111111111011101 X
1i
#305
03
0E
0W
0i
#308
b1111111011011100 "
13
b1010111101 4
1E
1W
b11100 X
1i
#309
03
0E
0W
0i
#312
b1111110101100001 "
13
b100111111 4
1E
b1111111111101001 F
1W
b110 X
1i
#313
03
0E
0W
0i
#316
b1110101101 "
13
b1111110011101001 4
1E
b1111111111111010 F
1W
b1111111111111000 X
1i
#317
03
0E
0W
0i
#320
b1100011001 "
13
b1111111101001001 4
1E
b1111111111111000 F
1W
b1111111111110110 X
1i
#321
03
0E
0W
0i
#324
b10011 "
13
b110000100 4
1E
b1111111111110011 F
1W
b1111111111111110 X
1i
#325
03
0E
0W
0i
#328
b1011011 "
13
b100010000 4
1E
b11001 F
1W
b1111111111101011 X
1i
#329
03
0E
0W
0i
#332
b101000110 "
13
b100101011 4
1E
b1111111111110010 F
1W
b1110 X
1i
#333
03
0E
0W
0i
#336
b1111111110001101 "
13
b101011010 4
1E
b1111 F
1W
b110 X
1i
#337
03
0E
0W
0i
#340
b101010001 "
13
b1111111001101111 4
1E
b1111111111101110 F
1W
b100101 X
1i
#341
03
0E
0W
0i
#344
b110101000 "
13
b1111111001100000 4
1E
b1101 F
1W
b1111111111110100 X
1i
#345
03
0E
0W
0i
#348
b1111111010011101 "
13
b1111110111110001 4
1E
b1111111111110000 F
1W
b101001 X
1i
#349
03
0E
0W
0i
#352
b101100000 "
13
b101001110 4
1E
b10 F
1W
b100 X
1i
#353
03
0E
0W
0i
#356
b1111111111100111 "
13
b1111111101000000 4
1E
b0 F
1W
b111 X
1i
#357
03
0E
0W
0i
#360
b1101110 "
13
b1111111000101111 4
1E
b1111111111101110 F
1W
b110 X
1i
#361
03
0E
0W
0i
#364
b1010111101 "
13
b1111111101111000 4
1E
b111 F
1W
b1111111111101011 X
1i
#365
03
0E
0W
0i
#368
b1111111000100101 "
13
b10001001 4
1E
b1111111111101101 F
1W
b1011 X
1i
#369
03
0E
0W
0i
#372
b100100101 "
13
b1001000001 4
1E
b1110 F
1W
b1 X
1i
#373
03
0E
0W
0i
#376
b11010110 "
13
b1100 4
1E
b10 F
1W
b10011 X
1i
#377
03
0E
0W
0i
#380
b1111111010001001 "
13
b1111111011100110 4
1E
b11010 F
1W
b1111111111110011 X
1i
#381
03
0E
0W
0i
#384
b1111101110111000 "
13
b1111111011001111 4
1E
b111 F
1W
b1111111111111101 X
1i
#385
03
0E
0W
0i
#388
b1001111101 "
13
b11100 4
1E
b10 F
1W
b11100 X
1i
#389
03
0E
0W
0i
#392
b100111011 "
13
b101001011 4
1E
b1111111111111001 F
1W
b11011 X
1i
#393
03
0E
0W
0i
#396
b1111110110011010 "
13
b111110011 4
1E
b1111111111111110 F
1W
b11 X
1i
#397
03
0E
0W
0i
#400
b1001000111 "
13
b101110110 4
1E
b1111111111100101 F
1W
b100 X
1i
#401
03
0E
0W
0i
#404
b1111010100 "
13
b1111111111100100 4
1E
b1111111111111001 F
1W
b11000 X
1i
#405
03
0E
0W
0i
#408
b1111111001001001 "
13
b1010001 4
1E
b111 F
1W
b0 X
1i
#409
03
0E
0W
0i
#412
b1111111110110000 "
13
b1111110 4
1E
b1101 F
1W
b100101 X
1i
#413
03
0E
0W
0i
#416
b1001010 "
13
b1010101100 4
1E
b1111111111111001 F
1W
b1100 X
1i
#417
03
0E
0W
0i
#420
b1111111101011110 "
13
b1111111101000101 4
1E
b10011 F
1W
b1111111111011101 X
1i
#421
03
0E
0W
0i
#424
b1111111110010010 "
13
b1111110111101000 4
1E
b1111111111110101 F
1W
b1111111111111101 X
1i
#425
03
0E
0W
0i
#428
b1111111111001101 "
13
b1111111000010110 4
1E
b1111111111111110 F
1W
b1111111111110000 X
1i
#429
03
0E
0W
0i
#432
b110001010 "
13
b1001111 4
1E
b10011 F
1W
b1010 X
1i
#433
03
0E
0W
0i
#436
b1111111100110100 "
13
b1010111011 4
1E
b1 F
1W
b10001 X
1i
#437
03
0E
0W
0i
#440
b110101 "
13
b1111111101101110 4
1E
b1111111111110010 F
1W
b101 X
1i
#441
03
0E
0W
0i
#444
b10100010 "
13
b1111111110000111 4
1E
b1010 F
1W
b1111111111011111 X
1i
#445
03
0E
0W
0i
#448
b1111110111011110 "
13
b1111111011110001 4
1E
b110 F
1W
b1111111111110111 X
1i
#449
03
0E
0W
0i
#452
b1111110111110001 "
13
b1111110100001101 4
1E
b11101 F
1W
b110 X
1i
#453
03
0E
0W
0i
#456
b1111110100011101 "
13
b1111111000100100 4
1E
b100 F
1W
b1111111111101010 X
1i
#457
03
0E
0W
0i
#460
b1111101111111000 "
13
b1011100001 4
1E
b1111111111111111 F
1W
b1111111111101111 X
1i
#461
03
0E
0W
0i
#464
b100100111 "
13
b1011010111 4
1E
b1110 F
1W
b10 X
1i
#465
03
0E
0W
0i
#468
b1111110101001110 "
13
b1111111100010000 4
1E
b100111 F
1W
b111 X
1i
#469
03
0E
0W
0i
#472
b1111111111010100 "
13
b1111110100001011 4
1E
b1111111111101110 F
1W
b1111111111110111 X
1i
#473
03
0E
0W
0i
#476
b1001011111 "
13
b1111111000010001 4
1E
b1 F
1W
b1111111111110110 X
1i
#477
03
0E
0W
0i
#480
b10011111 "
13
b1111111011101111 4
1E
b1111111111111110 F
1W
b110 X
1i
#481
03
0E
0W
0i
#484
b1010011010 "
13
b10101011 4
1E
b1111111111111000 F
1W
b10000 X
1i
#485
03
0E
0W
0i
#488
b101 "
13
b101010110 4
1E
b11110 F
1W
b1111111111110000 X
1i
#489
03
0E
0W
0i
#492
b1111111001010110 "
13
b1111111111100101 4
1E
b1111 F
1W
b1111111111101101 X
1i
#493
03
0E
0W
0i
#496
b1111000010 "
13
b1111111010111000 4
1E
b110 F
1W
b10101 X
1i
#497
03
0E
0W
0i
#500
b110001010 "
13
b1000011 4
1E
b1111111111111001 F
1W
b1111111111001001 X
1i
#501
03
0E
0W
0i
#504
b1111111110000111 "
13
b1001001010 4
1E
b100 F
1W
b1111111111111100 X
1i
#505
03
0E
0W
0i
#508
b1111110100100000 "
13
b100100000 4
1E
b11111 F
1W
b1111111111110010 X
1i
#509
03
0E
0W
0i
#512
b1111111100101000 "
13
b1001001011 4
1E
b1111111111111011 F
1W
b11 X
1i
#513
03
0E
0W
0i
#516
b11101101 "
13
b1111111101011111 4
1E
b1111111111111100 F
1W
b1111111111011100 X
1i
#517
03
0E
0W
0i
#520
b1111111100000100 "
13
b101000111 4
1E
b1000 F
1W
b110 X
1i
#521
03
0E
0W
0i
#524
b1111111111111101 "
13
b1111111011001010 4
1E
b10001 F
1W
1i
#525
03
0E
0W
0i
#528
b110101011 "
13
b1111110111101111 4
1E
b11 F
1W
b1111111111110100 X
1i
#529
03
0E
0W
0i
#532
b1011011000 "
13
b1111111000101100 4
1E
b111 F
1W
b1111111111010101 X
1i
#533
03
0E
0W
0i
#536
b100100001 "
13
b10101111 4
1E
b1111111111110001 F
1W
b1100 X
1i
#537
03
0E
0W
0i
#540
b1111111010101000 "
13
b100001010 4
1E
b1011 F
1W
b101 X
1i
#541
03
0E
0W
0i
#544
b1111110100010110 "
13
b1111111111000111 4
1E
1W
b1111111111110101 X
1i
#545
03
0E
0W
0i
#548
b1111110101010011 "
13
b11101001 4
1E
b1111111111100001 F
1W
b1111111111101011 X
1i
#549
03
0E
0W
0i
#552
b1110101100 "
13
b100111111 4
1E
b1111 F
1W
b110110 X
1i
#553
03
0E
0W
0i
#556
b1011110110 "
13
b100110010 4
1E
b1111111111101001 F
1W
b1111111111011111 X
1i
#557
03
0E
0W
0i
#560
b11010001 "
13
b1100011 4
1E
b10100 F
1W
b1111 X
1i
#561
03
0E
0W
0i
#564
b1101101 "
13
b1111111110110010 4
1E
b1000 F
1W
b101010 X
1i
#565
03
0E
0W
0i
#568
b110101000 "
13
b1111111101010111 4
1E
b10101 F
1W
b1111111111110010 X
1i
#569
03
0E
0W
0i
#572
b1111111010110111 "
13
b100011000 4
1E
b10111 F
1W
b10 X
1i
#573
03
0E
0W
0i
#576
b1111111100001000 "
13
b1111111011011101 4
1E
b100 F
1W
b1111111111110100 X
1i
#577
03
0E
0W
0i
#580
b1111111010001011 "
13
b10111 4
1E
b1111111111100011 F
1W
b101 X
1i
#581
03
0E
0W
0i
#584
b101000111 "
13
b11001110 4
1E
b101 F
1W
b11 X
1i
#585
03
0E
0W
0i
#588
b1011000111 "
13
b110101000 4
1E
b10010 F
1W
b1111111111110010 X
1i
#589
03
0E
0W
0i
#592
b1000101 "
13
b11000100 4
1E
b1111111111111001 F
1W
b1111111111101111 X
1i
#593
03
0E
0W
0i
#596
b1000010011 "
13
b1111110001111110 4
1E
b10111 F
1W
b101 X
1i
#597
03
0E
0W
0i
#600
b111110100 "
13
b1111110111011001 4
1E
b100 F
1W
b1111111111111111 X
1i
#601
03
0E
0W
0i
#604
b1111111101101010 "
13
b111011 4
1E
b10100 F
1W
b10000 X
1i
#605
03
0E
0W
0i
#608
b100 "
13
b11111010 4
1E
b1000 F
1W
b10011 X
1i
#609
03
0E
0W
0i
#612
b1000110 "
13
b1111111110111010 4
1E
b1111111111101101 F
1W
b1111111111100000 X
1i
#613
03
0E
0W
0i
#616
b1111111010110011 "
13
b1111111001001001 4
1E
b1100 F
1W
b1111111111110011 X
1i
#617
03
0E
0W
0i
#620
b1111111100010011 "
13
b1001110111 4
1E
b1111111111110100 F
1W
b1111111111110010 X
1i
#621
03
0E
0W
0i
#624
b1111111011110110 "
13
b100011110 4
1E
b10000 F
1W
b1110 X
1i
#625
03
0E
0W
0i
#628
b1110011101 "
13
b1111111111111100 4
1E
b1111111111111001 F
1W
b1 X
1i
#629
03
0E
0W
0i
#632
b1101101000 "
13
b11000111 4
1E
b1001 F
1W
b1111111111111010 X
1i
#633
03
0E
0W
0i
#636
b1111110111010000 "
13
b1111111111110000 4
1E
b1111111111110110 F
1W
b1111111111110000 X
1i
#637
03
0E
0W
0i
#640
b11101 "
13
b10000 4
1E
b10110 F
1W
b100 X
1i
#641
03
0E
0W
0i
#644
b1110010111 "
13
b1111111011100011 4
1E
b10001 F
1W
b110 X
1i
#645
03
0E
0W
0i
#648
b10000001001 "
13
b1111101110111101 4
1E
b1111111111110111 F
1W
b1111111111111111 X
1i
#649
03
0E
0W
0i
#652
b1111111111000010 "
13
b1100011 4
1E
b1111111111111101 F
1W
b0 X
1i
#653
03
0E
0W
0i
#656
b111011000 "
13
b1001000010 4
1E
b100 F
1W
b10010 X
1i
#657
03
0E
0W
0i
#660
b11001111 "
13
b1111111110110000 4
1E
b1110 F
1W
b11110 X
1i
#661
03
0E
0W
0i
#664
b1111110011000111 "
13
b1010111000 4
1E
b100100 F
1W
b1111111111110101 X
1i
#665
03
0E
0W
0i
#668
b1001011 "
13
b1111111010101110 4
1E
b100101 F
1W
b1 X
1i
#669
03
0E
0W
0i
#672
b10010000001 "
13
b10110011 4
1E
b11101 F
1W
b1111111111110011 X
1i
#673
03
0E
0W
0i
#676
b1111111010001100 "
13
b1111111001101111 4
1E
b1111111111110101 F
1W
b1111 X
1i
#677
03
0E
0W
0i
#680
b11000011 "
13
b1111111101011100 4
1E
b111 F
1W
b1111111111111011 X
1i
#681
03
0E
0W
0i
#684
b11010 "
13
b1010 4
1E
b10010 F
1W
b1111111111110010 X
1i
#685
03
0E
0W
0i
#688
b1111111111100000 "
13
b11000100 4
1E
b1111111111111001 F
1W
b1 X
1i
#689
03
0E
0W
0i
#692
b111 "
13
b10001000 4
1E
b1111111111111010 F
1W
b10 X
1i
#693
03
0E
0W
0i
#696
b1111111010011010 "
13
b1111111011100000 4
1E
b1111111111111111 F
1W
b1011 X
1i
#697
03
0E
0W
0i
#700
b11111000 "
13
b1111111011101001 4
1E
b111 F
1W
b1111111111110111 X
1i
#701
03
0E
0W
0i
#704
b100001000 "
13
b1111111010101101 4
1E
b10110 F
1W
b1111111111111111 X
1i
#705
03
0E
0W
0i
#708
b1111111100111100 "
13
b1111111000000010 4
1E
b1111111111111000 F
1W
b1111111111101000 X
1i
#709
03
0E
0W
0i
#712
b1111111110001111 "
13
b1111111100100011 4
1E
b10111 F
1W
b11111 X
1i
#713
03
0E
0W
0i
#716
b1111111110100000 "
13
b110101000 4
1E
b1 F
1W
b10010 X
1i
#717
03
0E
0W
0i
#720
b1001101 "
13
b1001110111 4
1E
b1111111111101101 F
1W
b1001 X
1i
#721
03
0E
0W
0i
#724
b1111111100010000 "
13
b100000101 4
1E
b1111111111110000 F
1W
b1111111111110010 X
1i
#725
03
0E
0W
0i
#728
b1111111100111110 "
13
b110010100 4
1E
b1111111111111101 F
1W
b1000 X
1i
#729
03
0E
0W
0i
#732
b10100111 "
13
b1111111011111110 4
1E
b1111111111100110 F
1W
b1111111111111011 X
1i
#733
03
0E
0W
0i
#736
b1000010010 "
13
b1111111101100110 4
1E
b1111111111101000 F
1W
b11001 X
1i
#737
03
0E
0W
0i
#740
b1001011010 "
13
b1111111010101111 4
1E
b1111111111110001 F
1W
b1111 X
1i
#741
03
0E
0W
0i
#744
b1111111001101000 "
13
b10110000 4
1E
b111 F
1W
b1111111111101101 X
1i
#745
03
0E
0W
0i
#748
b1111111110010001 "
13
b1111111101001101 4
1E
b0 F
1W
b1111111111111101 X
1i
#749
03
0E
0W
0i
#752
b1011101 "
13
b10010100 4
1E
b11 F
1W
b101 X
1i
#753
03
0E
0W
0i
#756
b1001010110 "
13
b10000100 4
1E
b1111111111100110 F
1W
b1111111111111000 X
1i
#757
03
0E
0W
0i
#760
b1111111100110100 "
13
b1111111110001110 4
1E
b1111111111110001 F
1W
b10010 X
1i
#761
03
0E
0W
0i
#764
b111001 "
13
b100010 4
1E
b1111111111011110 F
1W
b1001 X
1i
#765
03
0E
0W
0i
#768
b1111111111101000 "
13
b1100010100 4
1E
b1111111111101111 F
1W
b1111111111110101 X
1i
#769
03
0E
0W
0i
#772
b1111111011101101 "
13
b1111111100101100 4
1E
b1010 F
1W
b1111111111100010 X
1i
#773
03
0E
0W
0i
#776
b1111111011010000 "
13
b1111111101101101 4
1E
b110010 F
1W
b10 X
1i
#777
03
0E
0W
0i
#780
b11100000 "
13
b1111111001101010 4
1E
b1111111111110101 F
1W
b1111111111101101 X
1i
#781
03
0E
0W
0i
#784
b1111111110001011 "
13
b1111111001101100 4
1E
b1111111111111000 F
1W
b1111111111100011 X
1i
#785
03
0E
0W
0i
#788
b101101010 "
13
b100011010 4
1E
b1111111111111011 F
1W
b1111111111111100 X
1i
#789
03
0E
0W
0i
#792
b1011110011 "
13
b1111111110000000 4
1E
b10000 F
1W
b1111111111111011 X
1i
#793
03
0E
0W
0i
#796
b101 "
13
b1111100001 4
1E
b1111111111111011 F
1W
b1111111111010001 X
1i
#797
03
0E
0W
0i
#800
b111011101 "
13
b10111001 4
1E
b1010 F
1W
b1111111111111101 X
1i
#801
03
0E
0W
0i
#804
b1111111011100010 "
13
b1111111100001010 4
1E
b1111111111111110 F
1W
b10001 X
1i
#805
03
0E
0W
0i
#808
b10101010 "
13
b1111111110001011 4
1E
b101 F
1W
b1111111111100100 X
1i
#809
03
0E
0W
0i
#812
b111111 "
13
b1001001 4
1E
b1101 F
1W
b1111111111101100 X
1i
#813
03
0E
0W
0i
#816
b110100000 "
13
b1001010000 4
1E
b1111111111111111 F
1W
b11000 X
1i
#817
03
0E
0W
0i
#820
b110010 "
13
b1111111101110110 4
1E
b10011 F
1W
b1010 X
1i
#821
03
0E
0W
0i
#824
b1111111100110010 "
13
b1111111011100010 4
1E
b11000 F
1W
b1111111111111101 X
1i
#825
03
0E
0W
0i
#828
b1001001001 "
13
b111011100 4
1E
b1111 F
1W
b1111111111110111 X
1i
#829
03
0E
0W
0i
#832
b1101100111 "
13
b1111111101001010 4
1E
b1111111111110000 F
1W
b1 X
1i
#833
03
0E
0W
0i
#836
b1100100101 "
13
b1111111111010111 4
1E
b1111111111110110 F
1W
b1111111111110011 X
1i
#837
03
0E
0W
0i
#840
b10000111110 "
13
b100010001 4
1E
b1111111111111011 F
1W
b1111 X
1i
#841
03
0E
0W
0i
#844
b100100000 "
13
b1111111010000111 4
1E
b11000 F
1W
b1111111111011000 X
1i
#845
03
0E
0W
0i
#848
b10000101 "
13
b1111110010000101 4
1E
b1111111111110100 F
1W
b1111111111101110 X
1i
#849
03
0E
0W
0i
#852
b1001001 "
13
b1111111111010100 4
1E
b1111111111110011 F
1W
b110 X
1i
#853
03
0E
0W
0i
#856
b1111111101110111 "
13
b10001110 4
1E
b101000 F
1W
b1111111111100000 X
1i
#857
03
0E
0W
0i
#860
b1111111001110100 "
13
b1000000100 4
1E
b1111111111100010 F
1W
b1111111111101000 X
1i
#861
03
0E
0W
0i
#864
b101101110 "
13
b1111111111001000 4
1E
b0 F
1W
b10100 X
1i
#865
03
0E
0W
0i
#868
b1111111111001100 "
13
b101111001 4
1E
b1111111111100110 F
1W
b1111111111111100 X
1i
#869
03
0E
0W
0i
#872
b1111110101101010 "
13
b101101011 4
1E
b10 F
1W
b10110 X
1i
#873
03
0E
0W
0i
#876
b10101011 "
13
b110101111 4
1E
b1100 F
1W
b110 X
1i
#877
03
0E
0W
0i
#880
b11111101 "
13
b1001111011 4
1E
b1111111111111111 F
1W
b101 X
1i
#881
03
0E
0W
0i
#884
b1111111011010111 "
13
b1111111101111000 4
1E
b1111111111111000 F
1W
b100011 X
1i
#885
03
0E
0W
0i
#888
b1111111011000110 "
13
b10001 4
1E
1W
b1111111111110111 X
1i
#889
03
0E
0W
0i
#892
b1111111111110010 "
13
b10010 4
1E
b1111111111110101 F
1W
b1111111111110101 X
1i
#893
03
0E
0W
0i
#896
b100000111 "
13
b1111111100010101 4
1E
b1 F
1W
b11000 X
1i
#897
03
0E
0W
0i
#900
b11001001 "
13
b1111111101000011 4
1E
b1110 F
1W
b1110 X
1i
#901
03
0E
0W
0i
#904
b1111111111001110 "
13
b1111111101001001 4
1E
b1111111111100101 F
1W
b10100 X
1i
#905
03
0E
0W
0i
#908
b100111111 "
13
b1111111101110101 4
1E
b1111 F
1W
b1111111111101110 X
1i
#909
03
0E
0W
0i
#912
b1001000100 "
13
b1111111001100111 4
1E
b10001 F
1W
b1111111111110001 X
1i
#913
03
0E
0W
0i
#916
b10111110 "
13
b1111110101100010 4
1E
b1111111111110101 F
1W
b101 X
1i
#917
03
0E
0W
0i
#920
b11101011 "
13
b1111010 4
1E
b1111111111100110 F
1W
b1111111111111001 X
1i
#921
03
0E
0W
0i
#924
b1111111101101000 "
13
b1111111100000000 4
1E
b10010 F
1W
b1111111111100010 X
1i
#925
03
0E
0W
0i
#928
b1011011010 "
13
b10001100 4
1E
b100000 F
1W
b100000 X
1i
#929
03
0E
0W
0i
#932
b1110111011 "
13
b101111010 4
1E
b1111111111111101 F
1W
b1111111111111111 X
1i
#933
03
0E
0W
0i
#936
b1000111111 "
13
b1111110010100010 4
1E
b1111111111101110 F
1W
b110 X
1i
#937
03
0E
0W
0i
#940
b100001000 "
13
b1111111000010010 4
1E
b1111111111010001 F
1W
b1010 X
1i
#941
03
0E
0W
0i
#944
b111101 "
13
b1111110110101100 4
1E
b110 F
1W
b10111 X
1i
#945
03
0E
0W
0i
#948
b110101 "
13
b1111111001101000 4
1E
b10011 F
1W
b1111111111111011 X
1i
#949
03
0E
0W
0i
